%YAML 1.1
%TAG !u! tag:unity3d.com,2011:
--- !u!1 &7956509617977561720
GameObject:
  m_ObjectHideFlags: 0
  m_CorrespondingSourceObject: {fileID: 0}
  m_PrefabInstance: {fileID: 0}
  m_PrefabAsset: {fileID: 0}
  serializedVersion: 6
  m_Component:
  - component: {fileID: 7956509617977561723}
  m_Layer: 0
  m_Name: Enemy_Laser
  m_TagString: Untagged
  m_Icon: {fileID: 0}
  m_NavMeshLayer: 0
  m_StaticEditorFlags: 0
  m_IsActive: 1
--- !u!4 &7956509617977561723
Transform:
  m_ObjectHideFlags: 0
  m_CorrespondingSourceObject: {fileID: 0}
  m_PrefabInstance: {fileID: 0}
  m_PrefabAsset: {fileID: 0}
  m_GameObject: {fileID: 7956509617977561720}
  m_LocalRotation: {x: -0, y: -0, z: -0, w: 1}
  m_LocalPosition: {x: 0, y: 0, z: 0}
  m_LocalScale: {x: 1.3333334, y: 1.3333334, z: 1.3333334}
  m_Children:
  - {fileID: 4579791439179302600}
  - {fileID: 4579791440771830785}
  m_Father: {fileID: 0}
  m_RootOrder: 0
  m_LocalEulerAnglesHint: {x: 0, y: 0, z: 0}
--- !u!1001 &7956509617687559659
PrefabInstance:
  m_ObjectHideFlags: 0
  serializedVersion: 2
  m_Modification:
    m_TransformParent: {fileID: 7956509617977561723}
    m_Modifications:
    - target: {fileID: 106304536921309497, guid: 2983621d5d957a74cafe964a9f4d6439,
        type: 3}
      propertyPath: m_Name
      value: Left_Laser
      objectReference: {fileID: 0}
    - target: {fileID: 5901267313932811043, guid: 2983621d5d957a74cafe964a9f4d6439,
        type: 3}
      propertyPath: m_LocalPosition.x
      value: -0.18
      objectReference: {fileID: 0}
    - target: {fileID: 5901267313932811043, guid: 2983621d5d957a74cafe964a9f4d6439,
        type: 3}
      propertyPath: m_LocalPosition.y
      value: -1.4
      objectReference: {fileID: 0}
    - target: {fileID: 5901267313932811043, guid: 2983621d5d957a74cafe964a9f4d6439,
        type: 3}
      propertyPath: m_LocalPosition.z
      value: 0
      objectReference: {fileID: 0}
    - target: {fileID: 5901267313932811043, guid: 2983621d5d957a74cafe964a9f4d6439,
        type: 3}
      propertyPath: m_LocalRotation.x
      value: -0
      objectReference: {fileID: 0}
    - target: {fileID: 5901267313932811043, guid: 2983621d5d957a74cafe964a9f4d6439,
        type: 3}
      propertyPath: m_LocalRotation.y
      value: -0
      objectReference: {fileID: 0}
    - target: {fileID: 5901267313932811043, guid: 2983621d5d957a74cafe964a9f4d6439,
        type: 3}
      propertyPath: m_LocalRotation.z
      value: -0
      objectReference: {fileID: 0}
    - target: {fileID: 5901267313932811043, guid: 2983621d5d957a74cafe964a9f4d6439,
        type: 3}
      propertyPath: m_LocalRotation.w
      value: 1
      objectReference: {fileID: 0}
    - target: {fileID: 5901267313932811043, guid: 2983621d5d957a74cafe964a9f4d6439,
        type: 3}
      propertyPath: m_RootOrder
      value: 0
      objectReference: {fileID: 0}
    - target: {fileID: 5901267313932811043, guid: 2983621d5d957a74cafe964a9f4d6439,
        type: 3}
      propertyPath: m_LocalEulerAnglesHint.x
      value: 0
      objectReference: {fileID: 0}
    - target: {fileID: 5901267313932811043, guid: 2983621d5d957a74cafe964a9f4d6439,
        type: 3}
      propertyPath: m_LocalEulerAnglesHint.y
      value: 0
      objectReference: {fileID: 0}
    - target: {fileID: 5901267313932811043, guid: 2983621d5d957a74cafe964a9f4d6439,
        type: 3}
      propertyPath: m_LocalEulerAnglesHint.z
      value: 0
      objectReference: {fileID: 0}
    m_RemovedComponents: []
  m_SourcePrefab: {fileID: 100100000, guid: 2983621d5d957a74cafe964a9f4d6439, type: 3}
--- !u!4 &4579791439179302600 stripped
Transform:
  m_CorrespondingSourceObject: {fileID: 5901267313932811043, guid: 2983621d5d957a74cafe964a9f4d6439,
    type: 3}
  m_PrefabInstance: {fileID: 7956509617687559659}
  m_PrefabAsset: {fileID: 0}
--- !u!1001 &7956509619311013666
PrefabInstance:
  m_ObjectHideFlags: 0
  serializedVersion: 2
  m_Modification:
    m_TransformParent: {fileID: 7956509617977561723}
    m_Modifications:
    - target: {fileID: 106304536921309497, guid: 2983621d5d957a74cafe964a9f4d6439,
        type: 3}
      propertyPath: m_Name
      value: Right_Laser
      objectReference: {fileID: 0}
    - target: {fileID: 5901267313932811043, guid: 2983621d5d957a74cafe964a9f4d6439,
        type: 3}
      propertyPath: m_LocalPosition.x
      value: 0.18
      objectReference: {fileID: 0}
    - target: {fileID: 5901267313932811043, guid: 2983621d5d957a74cafe964a9f4d6439,
        type: 3}
      propertyPath: m_LocalPosition.y
      value: -1.4
      objectReference: {fileID: 0}
    - target: {fileID: 5901267313932811043, guid: 2983621d5d957a74cafe964a9f4d6439,
        type: 3}
      propertyPath: m_LocalPosition.z
      value: 0
      objectReference: {fileID: 0}
    - target: {fileID: 5901267313932811043, guid: 2983621d5d957a74cafe964a9f4d6439,
        type: 3}
      propertyPath: m_LocalRotation.x
      value: -0
      objectReference: {fileID: 0}
    - target: {fileID: 5901267313932811043, guid: 2983621d5d957a74cafe964a9f4d6439,
        type: 3}
      propertyPath: m_LocalRotation.y
      value: -0
      objectReference: {fileID: 0}
    - target: {fileID: 5901267313932811043, guid: 2983621d5d957a74cafe964a9f4d6439,
        type: 3}
      propertyPath: m_LocalRotation.z
      value: -0
      objectReference: {fileID: 0}
    - target: {fileID: 5901267313932811043, guid: 2983621d5d957a74cafe964a9f4d6439,
        type: 3}
      propertyPath: m_LocalRotation.w
      value: 1
      objectReference: {fileID: 0}
    - target: {fileID: 5901267313932811043, guid: 2983621d5d957a74cafe964a9f4d6439,
        type: 3}
      propertyPath: m_RootOrder
      value: 1
      objectReference: {fileID: 0}
    - target: {fileID: 5901267313932811043, guid: 2983621d5d957a74cafe964a9f4d6439,
        type: 3}
      propertyPath: m_LocalEulerAnglesHint.x
      value: 0
      objectReference: {fileID: 0}
    - target: {fileID: 5901267313932811043, guid: 2983621d5d957a74cafe964a9f4d6439,
        type: 3}
      propertyPath: m_LocalEulerAnglesHint.y
      value: 0
      objectReference: {fileID: 0}
    - target: {fileID: 5901267313932811043, guid: 2983621d5d957a74cafe964a9f4d6439,
        type: 3}
      propertyPath: m_LocalEulerAnglesHint.z
      value: 0
      objectReference: {fileID: 0}
    m_RemovedComponents: []
  m_SourcePrefab: {fileID: 100100000, guid: 2983621d5d957a74cafe964a9f4d6439, type: 3}
--- !u!4 &4579791440771830785 stripped
Transform:
  m_CorrespondingSourceObject: {fileID: 5901267313932811043, guid: 2983621d5d957a74cafe964a9f4d6439,
    type: 3}
  m_PrefabInstance: {fileID: 7956509619311013666}
  m_PrefabAsset: {fileID: 0}
